Data Analysis: Modeling
…
# Combine all results
lm_results <- bind_rows(lm_results_list)

# View the results
lm_results

# A tibble: 27 × 7
   .metric .estimator    mean     n std_err .config              predictor
   <chr>   <chr>        <dbl> <int>   <dbl> <chr>                <chr>    
 1 mae     standard   0.0838     25 0.00147 Preprocessor1_Model1 predictor
 2 rmse    standard   0.144      25 0.00281 Preprocessor1_Model1 predictor
 3 rsq     standard   0.128      25 0.00609 Preprocessor1_Model1 predictor
 4 mae     standard   0.0868     25 0.00165 Preprocessor1_Model1 predictor
 5 rmse    standard   0.154      25 0.00347 Preprocessor1_Model1 predictor
 6 rsq     standard   0.00866    25 0.00241 Preprocessor1_Model1 predictor
 7 mae     standard   0.0869     25 0.00148 Preprocessor1_Model1 predictor
 8 rmse    standard   0.154      25 0.00337 Preprocessor1_Model1 predictor
 9 rsq     standard   0.0119     25 0.00220 Preprocessor1_Model1 predictor
10 mae     standard   0.0871     25 0.00144 Preprocessor1_Model1 predictor
# ℹ 17 more rows
…
